[
  {
    "_id": "5d494a315b56502f18c98a0a",
    "type": 17,
    "enabled": true,
    "needsFuel": true,
    "takeFromSlotLocked": false,
    "craftGivesExp": true,
    "stages": {
      "0": {
        "requirements": [],
        "bonuses": [],
        "slots": 0,
        "constructionTime": 0,
        "description": ""
      },
      "1": {
        "requirements": [
          {
            "areaType": 4,
            "requiredLevel": 3,
            "type": "Area"
          },
          {
            "areaType": 0,
            "requiredLevel": 3,
            "type": "Area"
          },
          {
            "templateId": "5696686a4bdc2da3298b456a",
            "count": 25000,
            "isFunctional": false,
            "type": "Item"
          },
          {
            "traderId": "58330581ace78e27b8b10cee",
            "loyaltyLevel": 3,
            "type": "TraderLoyalty"
          },
          {
            "templateId": "5d0378d486f77420421a5ff4",
            "count": 5,
            "isFunctional": false,
            "type": "Item"
          },
          {
            "templateId": "590c595c86f7747884343ad7",
            "count": 5,
            "isFunctional": false,
            "type": "Item"
          },
          {
            "templateId": "619cbf476b8a1b37a54eebf8",
            "count": 3,
            "isFunctional": false,
            "type": "Item"
          }
        ],
        "bonuses": [
          {
            "value": 40,
            "passive": false,
            "production": true,
            "visible": true,
            "skillType": "Physical",
            "type": "SkillGroupLevelingBoost"
          },
          {
            "value": 3,
            "passive": true,
            "production": false,
            "visible": false,
            "filter": [
              "5d1b2f3f86f774252167a52c"
            ],
            "icon": null,
            "type": "AdditionalSlots"
          }
        ],
        "slots": 0,
        "constructionTime": 172800,
        "description": ""
      }
    }
  },
  {
    "_id": "5d484fb3654e7600681d9314",
    "type": 1,
    "enabled": true,
    "needsFuel": true,
    "takeFromSlotLocked": false,
    "craftGivesExp": true,
    "stages": {
      "0": {
        "requirements": [],
        "bonuses": [],
        "slots": 0,
        "constructionTime": 0,
        "description": ""
      },
      "1": {
        "requirements": [
          {
            "templateId": "5449016a4bdc2d6f028b456f",
            "count": 20000,
            "isFunctional": false,
            "type": "Item"
          },
          {
            "templateId": "590c2c9c86f774245b1f03f2",
            "count": 1,
            "isFunctional": false,
            "type": "Item"
          }
        ],
        "bonuses": [],
        "slots": 0,
        "constructionTime": 0,
        "description": ""
      },
      "2": {
        "requirements": [
          {
            "areaType": 15,
            "requiredLevel": 1,
            "type": "Area"
          },
          {
            "skillName": "Endurance",
            "skillLevel": 2,
            "type": "Skill"
          },
          {
            "templateId": "5449016a4bdc2d6f028b456f",
            "count": 45000,
            "isFunctional": false,
            "type": "Item"
          },
          {
            "areaType": 1,
            "requiredLevel": 1,
            "type": "Area"
          },
          {
            "templateId": "5af04b6486f774195a3ebb49",
            "count": 1,
            "isFunctional": false,
            "type": "Item"
          },
          {
            "templateId": "590c5bbd86f774785762df04",
            "count": 1,
            "isFunctional": false,
            "type": "Item"
          },
          {
            "templateId": "60391b0fb847c71012789415",
            "count": 1,
            "isFunctional": false,
            "type": "Item"
          }
        ],
        "bonuses": [],
        "slots": 0,
        "constructionTime": 10800,
        "description": ""
      },
      "3": {
        "requirements": [
          {
            "areaType": 15,
            "requiredLevel": 3,
            "type": "Area"
          },
          {
            "templateId": "5d1b304286f774253763a528",
            "count": 2,
            "isFunctional": false,
            "type": "Item"
          },
          {
            "templateId": "5c06779c86f77426e00dd782",
            "count": 4,
            "isFunctional": false,
            "type": "Item"
          },
          {
            "templateId": "5d1b2ffd86f77425243e8d17",
            "count": 8,
            "isFunctional": false,
            "type": "Item"
          },
          {
            "templateId": "590c392f86f77444754deb29",
            "count": 1,
            "isFunctional": false,
            "type": "Item"
          },
          {
            "traderId": "5a7c2eca46aef81a7ca2145d",
            "loyaltyLevel": 2,
            "type": "TraderLoyalty"
          },
          {
            "areaType": 1,
            "requiredLevel": 2,
            "type": "Area"
          }
        ],
        "bonuses": [],
        "slots": 0,
        "constructionTime": 61200,
        "description": ""
      }
    }
  },
  {
    "_id": "5d494a445b56502f18c98a10",
    "type": 20,
    "enabled": true,
    "needsFuel": true,
    "takeFromSlotLocked": false,
    "craftGivesExp": true,
    "stages": {
      "0": {
        "requirements": [],
        "bonuses": [],
        "slots": 0,
        "constructionTime": 0,
        "description": ""
      },
      "1": {
        "requirements": [
          {
            "areaType": 11,
            "requiredLevel": 2,
            "type": "Area"
          },
          {
            "templateId": "5734779624597737e04bf329",
            "count": 15,
            "isFunctional": false,
            "type": "Item"
          },
          {
            "templateId": "57347c2e24597744902c94a1",
            "count": 10,
            "isFunctional": false,
            "type": "Item"
          },
          {
            "templateId": "59e36c6f86f774176c10a2a7",
            "count": 10,
            "isFunctional": false,
            "type": "Item"
          },
          {
            "templateId": "5c05300686f7746dce784e5d",
            "count": 1,
            "isFunctional": false,
            "type": "Item"
          },
          {
            "templateId": "57347cd0245977445a2d6ff1",
            "count": 5,
            "isFunctional": false,
            "type": "Item"
          }
        ],
        "bonuses": [
          {
            "value": 10,
            "passive": true,
            "production": false,
            "visible": true,
            "filter": [
              "57347ca924597744596b4e71"
            ],
            "icon": "/files/Hideout/icon_hideout_videocardslots.png",
            "type": "AdditionalSlots"
          },
          {
            "value": 0,
            "passive": true,
            "production": false,
            "visible": true,
            "id": "5d8b8310270eff88e1f47beb",
            "icon": "/files/Hideout/icon_hideout_createitem_bitcoin.png",
            "type": "TextBonus"
          }
        ],
        "slots": 0,
        "constructionTime": 122400,
        "description": ""
      },
      "2": {
        "requirements": [
          {
            "areaType": 20,
            "requiredLevel": 1,
            "type": "Area"
          },
          {
            "areaType": 4,
            "requiredLevel": 3,
            "type": "Area"
          },
          {
            "templateId": "5734779624597737e04bf329",
            "count": 15,
            "isFunctional": false,
            "type": "Item"
          },
          {
            "templateId": "57347c2e24597744902c94a1",
            "count": 10,
            "isFunctional": false,
            "type": "Item"
          },
          {
            "templateId": "590a3b0486f7743954552bdb",
            "count": 15,
            "isFunctional": false,
            "type": "Item"
          },
          {
            "templateId": "5d1b313086f77425227d1678",
            "count": 5,
            "isFunctional": false,
            "type": "Item"
          },
          {
            "templateId": "5d0378d486f77420421a5ff4",
            "count": 2,
            "isFunctional": false,
            "type": "Item"
          }
        ],
        "bonuses": [
          {
            "value": 15,
            "passive": true,
            "production": false,
            "visible": true,
            "filter": [
              "57347ca924597744596b4e71"
            ],
            "icon": "/files/Hideout/icon_hideout_videocardslots.png",
            "type": "AdditionalSlots"
          }
        ],
        "slots": 0,
        "constructionTime": 180000,
        "description": ""
      },
      "3": {
        "requirements": [
          {
            "areaType": 20,
            "requiredLevel": 2,
            "type": "Area"
          },
          {
            "areaType": 18,
            "requiredLevel": 1,
            "type": "Area"
          },
          {
            "areaType": 6,
            "requiredLevel": 3,
            "type": "Area"
          },
          {
            "templateId": "5734779624597737e04bf329",
            "count": 25,
            "isFunctional": false,
            "type": "Item"
          },
          {
            "templateId": "5d1b39a386f774252339976f",
            "count": 15,
            "isFunctional": false,
            "type": "Item"
          },
          {
            "templateId": "5d1b2fa286f77425227d1674",
            "count": 10,
            "isFunctional": false,
            "type": "Item"
          },
          {
            "templateId": "5d1b327086f7742525194449",
            "count": 10,
            "isFunctional": false,
            "type": "Item"
          },
          {
            "templateId": "5d03794386f77420415576f5",
            "count": 1,
            "isFunctional": false,
            "type": "Item"
          }
        ],
        "bonuses": [
          {
            "value": 25,
            "passive": true,
            "production": false,
            "visible": true,
            "filter": [
              "57347ca924597744596b4e71"
            ],
            "icon": "/files/Hideout/icon_hideout_unlocked.png",
            "type": "AdditionalSlots"
          }
        ],
        "slots": 0,
        "constructionTime": 381600,
        "description": ""
      }
    }
  },
  {
    "_id": "5d484fdf654e7600691aadf8",
    "type": 11,
    "enabled": true,
    "needsFuel": true,
    "takeFromSlotLocked": false,
    "craftGivesExp": true,
    "stages": {
      "0": {
        "requirements": [],
        "bonuses": [],
        "slots": 0,
        "constructionTime": 0,
        "description": ""
      },
      "1": {
        "requirements": [
          {
            "areaType": 1,
            "requiredLevel": 2,
            "type": "Area"
          },
          {
            "areaType": 0,
            "requiredLevel": 2,
            "type": "Area"
          },
          {
            "templateId": "5c12613b86f7743bbe2c3f76",
            "count": 1,
            "isFunctional": false,
            "type": "Item"
          },
          {
            "templateId": "590c645c86f77412b01304d9",
            "count": 1,
            "isFunctional": false,
            "type": "Item"
          },
          {
            "templateId": "574eb85c245977648157eec3",
            "count": 1,
            "isFunctional": false,
            "type": "Item"
          }
        ],
        "bonuses": [
          {
            "value": -15,
            "passive": true,
            "production": false,
            "visible": true,
            "type": "ScavCooldownTimer"
          },
          {
            "value": 5,
            "passive": true,
            "production": false,
            "visible": true,
            "type": "QuestMoneyReward"
          }
        ],
        "slots": 0,
        "constructionTime": 0,
        "description": ""
      },
      "2": {
        "requirements": [
          {
            "templateId": "5c12613b86f7743bbe2c3f76",
            "count": 3,
            "isFunctional": false,
            "type": "Item"
          },
          {
            "templateId": "590c621186f774138d11ea29",
            "count": 3,
            "isFunctional": false,
            "type": "Item"
          },
          {
            "templateId": "59e36c6f86f774176c10a2a7",
            "count": 4,
            "isFunctional": false,
            "type": "Item"
          },
          {
            "templateId": "590a386e86f77429692b27ab",
            "count": 4,
            "isFunctional": false,
            "type": "Item"
          },
          {
            "areaType": 1,
            "requiredLevel": 3,
            "type": "Area"
          },
          {
            "areaType": 7,
            "requiredLevel": 3,
            "type": "Area"
          },
          {
            "areaType": 8,
            "requiredLevel": 3,
            "type": "Area"
          },
          {
            "skillName": "Attention",
            "skillLevel": 3,
            "type": "Skill"
          },
          {
            "areaType": 11,
            "requiredLevel": 1,
            "type": "Area"
          },
          {
            "traderId": "5a7c2eca46aef81a7ca2145d",
            "loyaltyLevel": 2,
            "type": "TraderLoyalty"
          }
        ],
        "bonuses": [
          {
            "value": 10,
            "passive": true,
            "production": false,
            "visible": true,
            "type": "QuestMoneyReward"
          },
          {
            "value": -20,
            "passive": true,
            "production": false,
            "visible": true,
            "type": "InsuranceReturnTime"
          }
        ],
        "slots": 0,
        "constructionTime": 21600,
        "description": ""
      },
      "3": {
        "requirements": [
          {
            "templateId": "5c052f6886f7746b1e3db148",
            "count": 2,
            "isFunctional": false,
            "type": "Item"
          },
          {
            "templateId": "5c05300686f7746dce784e5d",
            "count": 2,
            "isFunctional": false,
            "type": "Item"
          },
          {
            "templateId": "590a3efd86f77437d351a25b",
            "count": 1,
            "isFunctional": false,
            "type": "Item"
          },
          {
            "templateId": "5d0375ff86f774186372f685",
            "count": 4,
            "isFunctional": false,
            "type": "Item"
          },
          {
            "traderId": "54cb50c76803fa8b248b4571",
            "loyaltyLevel": 3,
            "type": "TraderLoyalty"
          },
          {
            "areaType": 10,
            "requiredLevel": 3,
            "type": "Area"
          },
          {
            "areaType": 4,
            "requiredLevel": 3,
            "type": "Area"
          },
          {
            "areaType": 11,
            "requiredLevel": 2,
            "type": "Area"
          },
          {
            "templateId": "61bf7c024770ee6f9c6b8b53",
            "count": 1,
            "isFunctional": false,
            "type": "Item"
          }
        ],
        "bonuses": [
          {
            "value": -20,
            "passive": true,
            "production": false,
            "visible": true,
            "type": "ScavCooldownTimer"
          },
          {
            "value": -30,
            "passive": true,
            "production": false,
            "visible": true,
            "type": "RagfairCommission"
          }
        ],
        "slots": 0,
        "constructionTime": 86400,
        "description": ""
      }
    }
  },
  {
    "_id": "5d494a0e5b56502f18c98a02",
    "type": 13,
    "enabled": true,
    "needsFuel": true,
    "takeFromSlotLocked": false,
    "craftGivesExp": true,
    "stages": {
      "0": {
        "requirements": [],
        "bonuses": [],
        "slots": 0,
        "constructionTime": 0,
        "description": ""
      },
      "1": {
        "requirements": [
          {
            "areaType": 9,
            "requiredLevel": 3,
            "type": "Area"
          },
          {
            "templateId": "5449016a4bdc2d6f028b456f",
            "count": 400000,
            "isFunctional": false,
            "type": "Item"
          },
          {
            "skillName": "Memory",
            "skillLevel": 8,
            "type": "Skill"
          },
          {
            "templateId": "573478bc24597738002c6175",
            "count": 1,
            "isFunctional": false,
            "type": "Item"
          },
          {
            "templateId": "573474f924597738002c6174",
            "count": 2,
            "isFunctional": false,
            "type": "Item"
          },
          {
            "templateId": "590c639286f774151567fa95",
            "count": 5,
            "isFunctional": false,
            "type": "Item"
          },
          {
            "templateId": "590c645c86f77412b01304d9",
            "count": 2,
            "isFunctional": false,
            "type": "Item"
          },
          {
            "templateId": "590c651286f7741e566b6461",
            "count": 2,
            "isFunctional": false,
            "type": "Item"
          }
        ],
        "bonuses": [
          {
            "value": 15,
            "passive": true,
            "production": false,
            "visible": true,
            "type": "ExperienceRate"
          },
          {
            "value": 30,
            "passive": true,
            "production": false,
            "visible": true,
            "skillType": "Practical",
            "type": "SkillGroupLevelingBoost"
          }
        ],
        "slots": 0,
        "constructionTime": 194400,
        "description": ""
      }
    }
  },
  {
    "_id": "5d484fd1654e76006732bf2e",
    "type": 8,
    "enabled": true,
    "needsFuel": true,
    "takeFromSlotLocked": false,
    "craftGivesExp": true,
    "stages": {
      "0": {
        "requirements": [],
        "bonuses": [],
        "slots": 0,
        "constructionTime": 0,
        "description": ""
      },
      "1": {
        "requirements": [
          {
            "areaType": 4,
            "requiredLevel": 1,
            "type": "Area"
          },
          {
            "templateId": "5449016a4bdc2d6f028b456f",
            "count": 25000,
            "isFunctional": false,
            "type": "Item"
          },
          {
            "templateId": "5d1b313086f77425227d1678",
            "count": 2,
            "isFunctional": false,
            "type": "Item"
          },
          {
            "templateId": "59e36c6f86f774176c10a2a7",
            "count": 1,
            "isFunctional": false,
            "type": "Item"
          }
        ],
        "bonuses": [
          {
            "value": 10,
            "passive": true,
            "production": false,
            "visible": true,
            "type": "EnergyRegeneration"
          }
        ],
        "slots": 0,
        "constructionTime": 0,
        "description": ""
      },
      "2": {
        "requirements": [
          {
            "areaType": 2,
            "requiredLevel": 2,
            "type": "Area"
          },
          {
            "templateId": "590c311186f77424d1667482",
            "count": 4,
            "isFunctional": false,
            "type": "Item"
          },
          {
            "templateId": "59e35cbb86f7741778269d83",
            "count": 2,
            "isFunctional": false,
            "type": "Item"
          },
          {
            "templateId": "59faf98186f774067b6be103",
            "count": 2,
            "isFunctional": false,
            "type": "Item"
          },
          {
            "areaType": 8,
            "requiredLevel": 1,
            "type": "Area"
          },
          {
            "templateId": "5d1b313086f77425227d1678",
            "count": 1,
            "isFunctional": false,
            "type": "Item"
          }
        ],
        "bonuses": [
          {
            "value": 20,
            "passive": true,
            "production": false,
            "visible": true,
            "type": "EnergyRegeneration"
          },
          {
            "value": 7,
            "passive": true,
            "production": false,
            "visible": true,
            "type": "HealthRegeneration"
          }
        ],
        "slots": 0,
        "constructionTime": 14400,
        "description": ""
      },
      "3": {
        "requirements": [
          {
            "areaType": 4,
            "requiredLevel": 2,
            "type": "Area"
          },
          {
            "areaType": 2,
            "requiredLevel": 3,
            "type": "Area"
          },
          {
            "areaType": 3,
            "requiredLevel": 2,
            "type": "Area"
          },
          {
            "templateId": "5449016a4bdc2d6f028b456f",
            "count": 125000,
            "isFunctional": false,
            "type": "Item"
          },
          {
            "skillName": "Metabolism",
            "skillLevel": 3,
            "type": "Skill"
          },
          {
            "areaType": 8,
            "requiredLevel": 2,
            "type": "Area"
          },
          {
            "templateId": "5af0484c86f7740f02001f7f",
            "count": 3,
            "isFunctional": false,
            "type": "Item"
          },
          {
            "templateId": "59e35abd86f7741778269d82",
            "count": 3,
            "isFunctional": false,
            "type": "Item"
          },
          {
            "templateId": "5e2af00086f7746d3f3c33f7",
            "count": 2,
            "isFunctional": false,
            "type": "Item"
          }
        ],
        "bonuses": [
          {
            "value": 30,
            "passive": true,
            "production": false,
            "visible": true,
            "type": "EnergyRegeneration"
          },
          {
            "value": 20,
            "passive": true,
            "production": false,
            "visible": true,
            "type": "HydrationRegeneration"
          }
        ],
        "slots": 0,
        "constructionTime": 50400,
        "description": ""
      }
    }
  },
  {
    "_id": "5d484fc0654e76006657e0ab",
    "type": 3,
    "enabled": true,
    "needsFuel": false,
    "takeFromSlotLocked": false,
    "craftGivesExp": false,
    "stages": {
      "0": {
        "requirements": [],
        "bonuses": [],
        "slots": 0,
        "constructionTime": 0,
        "description": ""
      },
      "1": {
        "requirements": [],
        "bonuses": [
          {
            "value": 0,
            "passive": true,
            "production": false,
            "visible": true,
            "templateId": "566abbc34bdc2d92178b4576",
            "type": "StashSize"
          }
        ],
        "slots": 0,
        "constructionTime": 0,
        "description": ""
      },
      "2": {
        "requirements": [
          {
            "templateId": "5d1b317c86f7742523398392",
            "count": 1,
            "isFunctional": false,
            "type": "Item"
          },
          {
            "templateId": "59e35ef086f7741777737012",
            "count": 10,
            "isFunctional": false,
            "type": "Item"
          },
          {
            "templateId": "590c5bbd86f774785762df04",
            "count": 4,
            "isFunctional": false,
            "type": "Item"
          },
          {
            "areaType": 0,
            "requiredLevel": 1,
            "type": "Area"
          },
          {
            "templateId": "5449016a4bdc2d6f028b456f",
            "count": 2500000,
            "isFunctional": false,
            "type": "Item"
          },
          {
            "areaType": 3,
            "requiredLevel": 0,
            "type": "Area"
          },
          {
            "templateId": "590c31c586f774245e3141b2",
            "count": 5,
            "isFunctional": false,
            "type": "Item"
          }
        ],
        "bonuses": [
          {
            "value": 0,
            "passive": true,
            "production": false,
            "visible": true,
            "templateId": "5811ce572459770cba1a34ea",
            "type": "StashSize"
          }
        ],
        "slots": 0,
        "constructionTime": 86400,
        "description": ""
      },
      "3": {
        "requirements": [
          {
            "areaType": 0,
            "requiredLevel": 2,
            "type": "Area"
          },
          {
            "areaType": 5,
            "requiredLevel": 2,
            "type": "Area"
          },
          {
            "templateId": "59e35de086f7741778269d84",
            "count": 2,
            "isFunctional": false,
            "type": "Item"
          },
          {
            "templateId": "59e35ef086f7741777737012",
            "count": 15,
            "isFunctional": false,
            "type": "Item"
          },
          {
            "templateId": "5449016a4bdc2d6f028b456f",
            "count": 8500000,
            "isFunctional": false,
            "type": "Item"
          },
          {
            "traderId": "54cb50c76803fa8b248b4571",
            "loyaltyLevel": 3,
            "type": "TraderLoyalty"
          },
          {
            "areaType": 3,
            "requiredLevel": 1,
            "type": "Area"
          },
          {
            "traderId": "5ac3b934156ae10c4430e83c",
            "loyaltyLevel": 3,
            "type": "TraderLoyalty"
          },
          {
            "templateId": "590c31c586f774245e3141b2",
            "count": 7,
            "isFunctional": false,
            "type": "Item"
          }
        ],
        "bonuses": [
          {
            "value": 0,
            "passive": true,
            "production": false,
            "visible": true,
            "templateId": "5811ce662459770f6f490f32",
            "type": "StashSize"
          }
        ],
        "slots": 0,
        "constructionTime": 172800,
        "description": ""
      },
      "4": {
        "requirements": [
          {
            "areaType": 4,
            "requiredLevel": 3,
            "type": "Area"
          },
          {
            "areaType": 10,
            "requiredLevel": 3,
            "type": "Area"
          },
          {
            "areaType": 5,
            "requiredLevel": 3,
            "type": "Area"
          },
          {
            "templateId": "569668774bdc2da2298b4568",
            "count": 200000,
            "isFunctional": false,
            "type": "Item"
          },
          {
            "traderId": "5935c25fb3acc3127c3d8cd9",
            "loyaltyLevel": 4,
            "type": "TraderLoyalty"
          },
          {
            "areaType": 3,
            "requiredLevel": 2,
            "type": "Area"
          },
          {
            "areaType": 11,
            "requiredLevel": 2,
            "type": "Area"
          },
          {
            "traderId": "5ac3b934156ae10c4430e83c",
            "loyaltyLevel": 4,
            "type": "TraderLoyalty"
          },
          {
            "templateId": "57347c5b245977448d35f6e1",
            "count": 10,
            "isFunctional": false,
            "type": "Item"
          },
          {
            "templateId": "57347c77245977448d35f6e2",
            "count": 10,
            "isFunctional": false,
            "type": "Item"
          },
          {
            "templateId": "590c35a486f774273531c822",
            "count": 5,
            "isFunctional": false,
            "type": "Item"
          },
          {
            "templateId": "60391afc25aff57af81f7085",
            "count": 2,
            "isFunctional": false,
            "type": "Item"
          }
        ],
        "bonuses": [
          {
            "value": 0,
            "passive": true,
            "production": false,
            "visible": true,
            "templateId": "5811ce772459770e9e5f9532",
            "type": "StashSize"
          }
        ],
        "slots": 0,
        "constructionTime": 345600,
        "description": ""
      }
    }
  },
  {
    "_id": "5d484fcd654e7668ec2ec322",
    "type": 7,
    "enabled": true,
    "needsFuel": true,
    "takeFromSlotLocked": false,
    "craftGivesExp": true,
    "stages": {
      "0": {
        "requirements": [],
        "bonuses": [],
        "slots": 0,
        "constructionTime": 0,
        "description": ""
      },
      "1": {
        "requirements": [
          {
            "templateId": "5449016a4bdc2d6f028b456f",
            "count": 50000,
            "isFunctional": false,
            "type": "Item"
          },
          {
            "templateId": "5d1b3f2d86f774253763b735",
            "count": 1,
            "isFunctional": false,
            "type": "Item"
          },
          {
            "templateId": "5d1b3a5d86f774252167ba22",
            "count": 1,
            "isFunctional": false,
            "type": "Item"
          },
          {
            "templateId": "544fb25a4bdc2dfb738b4567",
            "count": 2,
            "isFunctional": false,
            "type": "Item"
          }
        ],
        "bonuses": [
          {
            "value": 6,
            "passive": true,
            "production": false,
            "visible": true,
            "type": "HealthRegeneration"
          },
          {
            "value": 0,
            "passive": true,
            "production": false,
            "visible": true,
            "id": "5d8b89addfc57a648453e89d",
            "icon": "/files/Hideout/icon_hideout_createitem_meds.png",
            "type": "TextBonus"
          }
        ],
        "slots": 0,
        "constructionTime": 0,
        "description": ""
      },
      "2": {
        "requirements": [
          {
            "areaType": 4,
            "requiredLevel": 1,
            "type": "Area"
          },
          {
            "templateId": "5449016a4bdc2d6f028b456f",
            "count": 150000,
            "isFunctional": false,
            "type": "Item"
          },
          {
            "skillName": "Health",
            "skillLevel": 2,
            "type": "Skill"
          },
          {
            "traderId": "54cb57776803fa99248b456e",
            "loyaltyLevel": 2,
            "type": "TraderLoyalty"
          },
          {
            "templateId": "5b4335ba86f7744d2837a264",
            "count": 2,
            "isFunctional": false,
            "type": "Item"
          },
          {
            "templateId": "59e3606886f77417674759a5",
            "count": 3,
            "isFunctional": false,
            "type": "Item"
          },
          {
            "areaType": 7,
            "requiredLevel": 1,
            "type": "Area"
          },
          {
            "templateId": "5e831507ea0a7c419c2f9bd9",
            "count": 5,
            "isFunctional": false,
            "type": "Item"
          },
          {
            "templateId": "619cc01e0a7c3a1a2731940c",
            "count": 3,
            "isFunctional": false,
            "type": "Item"
          }
        ],
        "bonuses": [
          {
            "value": 12,
            "passive": true,
            "production": false,
            "visible": true,
            "type": "HealthRegeneration"
          }
        ],
        "slots": 0,
        "constructionTime": 10800,
        "description": ""
      },
      "3": {
        "requirements": [
          {
            "templateId": "5449016a4bdc2d6f028b456f",
            "count": 500000,
            "isFunctional": false,
            "type": "Item"
          },
          {
            "traderId": "54cb57776803fa99248b456e",
            "loyaltyLevel": 3,
            "type": "TraderLoyalty"
          },
          {
            "traderId": "58330581ace78e27b8b10cee",
            "loyaltyLevel": 2,
            "type": "TraderLoyalty"
          },
          {
            "areaType": 4,
            "requiredLevel": 2,
            "type": "Area"
          },
          {
            "areaType": 2,
            "requiredLevel": 2,
            "type": "Area"
          },
          {
            "templateId": "59e3606886f77417674759a5",
            "count": 4,
            "isFunctional": false,
            "type": "Item"
          },
          {
            "templateId": "5c0530ee86f774697952d952",
            "count": 1,
            "isFunctional": false,
            "type": "Item"
          },
          {
            "areaType": 7,
            "requiredLevel": 2,
            "type": "Area"
          },
          {
            "skillName": "Vitality",
            "skillLevel": 3,
            "type": "Skill"
          },
          {
            "templateId": "5af0534a86f7743b6f354284",
            "count": 1,
            "isFunctional": false,
            "type": "Item"
          }
        ],
        "bonuses": [
          {
            "value": 20,
            "passive": true,
            "production": false,
            "visible": true,
            "type": "HealthRegeneration"
          }
        ],
        "slots": 0,
        "constructionTime": 43200,
        "description": ""
      }
    }
  },
  {
    "_id": "5d388e97081959000a123acf",
    "type": 5,
    "enabled": true,
    "needsFuel": true,
    "takeFromSlotLocked": false,
    "craftGivesExp": false,
    "stages": {
      "0": {
        "requirements": [],
        "bonuses": [],
        "slots": 0,
        "constructionTime": 0,
        "description": ""
      },
      "1": {
        "requirements": [
          {
            "templateId": "5449016a4bdc2d6f028b456f",
            "count": 25000,
            "isFunctional": false,
            "type": "Item"
          },
          {
            "templateId": "57347b8b24597737dd42e192",
            "count": 2,
            "isFunctional": false,
            "type": "Item"
          }
        ],
        "bonuses": [
          {
            "value": 4,
            "passive": true,
            "production": false,
            "visible": true,
            "type": "EnergyRegeneration"
          }
        ],
        "slots": 0,
        "constructionTime": 0,
        "description": ""
      },
      "2": {
        "requirements": [
          {
            "templateId": "5449016a4bdc2d6f028b456f",
            "count": 50000,
            "isFunctional": false,
            "type": "Item"
          },
          {
            "areaType": 0,
            "requiredLevel": 1,
            "type": "Area"
          },
          {
            "areaType": 5,
            "requiredLevel": 1,
            "type": "Area"
          },
          {
            "skillName": "Endurance",
            "skillLevel": 1,
            "type": "Skill"
          },
          {
            "templateId": "5e2af2bc86f7746d3f3c33fc",
            "count": 2,
            "isFunctional": false,
            "type": "Item"
          },
          {
            "templateId": "590a373286f774287540368b",
            "count": 3,
            "isFunctional": false,
            "type": "Item"
          },
          {
            "templateId": "56742c284bdc2d98058b456d",
            "count": 3,
            "isFunctional": false,
            "type": "Item"
          }
        ],
        "bonuses": [
          {
            "value": 8,
            "passive": true,
            "production": false,
            "visible": true,
            "type": "EnergyRegeneration"
          }
        ],
        "slots": 0,
        "constructionTime": 7200,
        "description": ""
      },
      "3": {
        "requirements": [
          {
            "templateId": "5d1c774f86f7746d6620f8db",
            "count": 8,
            "isFunctional": false,
            "type": "Item"
          },
          {
            "templateId": "5c06779c86f77426e00dd782",
            "count": 8,
            "isFunctional": false,
            "type": "Item"
          },
          {
            "areaType": 4,
            "requiredLevel": 2,
            "type": "Area"
          },
          {
            "areaType": 10,
            "requiredLevel": 2,
            "type": "Area"
          },
          {
            "traderId": "5ac3b934156ae10c4430e83c",
            "loyaltyLevel": 2,
            "type": "TraderLoyalty"
          },
          {
            "areaType": 5,
            "requiredLevel": 2,
            "type": "Area"
          },
          {
            "templateId": "5d1b313086f77425227d1678",
            "count": 4,
            "isFunctional": false,
            "type": "Item"
          },
          {
            "templateId": "619cbf476b8a1b37a54eebf8",
            "count": 2,
            "isFunctional": false,
            "type": "Item"
          }
        ],
        "bonuses": [
          {
            "value": 12,
            "passive": true,
            "production": false,
            "visible": true,
            "type": "EnergyRegeneration"
          },
          {
            "value": -50,
            "passive": true,
            "production": false,
            "visible": true,
            "type": "DebuffEndDelay"
          }
        ],
        "slots": 0,
        "constructionTime": 28800,
        "description": ""
      }
    }
  },
  {
    "_id": "5d494a385b56502f18c98a0c",
    "type": 18,
    "enabled": true,
    "needsFuel": false,
    "takeFromSlotLocked": false,
    "craftGivesExp": false,
    "stages": {
      "0": {
        "requirements": [],
        "bonuses": [],
        "slots": 0,
        "constructionTime": 0,
        "description": ""
      },
      "1": {
        "requirements": [
          {
            "areaType": 4,
            "requiredLevel": 3,
            "type": "Area"
          },
          {
            "areaType": 10,
            "requiredLevel": 3,
            "type": "Area"
          },
          {
            "templateId": "569668774bdc2da2298b4568",
            "count": 75000,
            "isFunctional": false,
            "type": "Item"
          },
          {
            "traderId": "5935c25fb3acc3127c3d8cd9",
            "loyaltyLevel": 4,
            "type": "TraderLoyalty"
          },
          {
            "templateId": "5d0375ff86f774186372f685",
            "count": 10,
            "isFunctional": false,
            "type": "Item"
          },
          {
            "templateId": "5d03775b86f774203e7e0c4b",
            "count": 4,
            "isFunctional": false,
            "type": "Item"
          },
          {
            "templateId": "5d0378d486f77420421a5ff4",
            "count": 10,
            "isFunctional": false,
            "type": "Item"
          },
          {
            "templateId": "5d1b304286f774253763a528",
            "count": 3,
            "isFunctional": false,
            "type": "Item"
          }
        ],
        "bonuses": [
          {
            "value": -50,
            "passive": true,
            "production": false,
            "visible": true,
            "type": "FuelConsumption"
          }
        ],
        "slots": 0,
        "constructionTime": 259200,
        "description": ""
      }
    }
  },
  {
    "_id": "5d484fe3654e76006657e0ac",
    "type": 12,
    "enabled": true,
    "needsFuel": false,
    "takeFromSlotLocked": false,
    "craftGivesExp": true,
    "stages": {
      "0": {
        "requirements": [],
        "bonuses": [],
        "slots": 0,
        "constructionTime": 0,
        "description": ""
      },
      "1": {
        "requirements": [
          {
            "areaType": 15,
            "requiredLevel": 2,
            "type": "Area"
          },
          {
            "templateId": "590c31c586f774245e3141b2",
            "count": 4,
            "isFunctional": false,
            "type": "Item"
          },
          {
            "templateId": "57347c77245977448d35f6e2",
            "count": 5,
            "isFunctional": false,
            "type": "Item"
          },
          {
            "templateId": "57347c5b245977448d35f6e1",
            "count": 5,
            "isFunctional": false,
            "type": "Item"
          },
          {
            "templateId": "57347c1124597737fb1379e3",
            "count": 3,
            "isFunctional": false,
            "type": "Item"
          },
          {
            "templateId": "59e35ef086f7741777737012",
            "count": 2,
            "isFunctional": false,
            "type": "Item"
          },
          {
            "templateId": "61bf7b6302b3924be92fa8c3",
            "count": 2,
            "isFunctional": false,
            "type": "Item"
          }
        ],
        "bonuses": [
          {
            "value": 0,
            "passive": true,
            "production": false,
            "visible": true,
            "id": "5d6282a3b9c45949bb2992d6",
            "icon": "/files/Hideout/icon_hideout_shootingrangeunlock.png",
            "type": "TextBonus"
          }
        ],
        "slots": 0,
        "constructionTime": 3600,
        "description": ""
      }
    }
  },
  {
    "_id": "5d494a295b56502f18c98a08",
    "type": 16,
    "enabled": false,
    "needsFuel": true,
    "takeFromSlotLocked": false,
    "craftGivesExp": true,
    "stages": {
      "0": {
        "requirements": [],
        "bonuses": [],
        "slots": 0,
        "constructionTime": 0,
        "description": ""
      },
      "1": {
        "requirements": [
          {
            "areaType": 11,
            "requiredLevel": 3,
            "type": "Area"
          },
          {
            "areaType": 9,
            "requiredLevel": 3,
            "type": "Area"
          },
          {
            "areaType": 3,
            "requiredLevel": 3,
            "type": "Area"
          },
          {
            "templateId": "5449016a4bdc2d6f028b456f",
            "count": 20000000,
            "isFunctional": false,
            "type": "Item"
          }
        ],
        "bonuses": [
          {
            "value": 100,
            "passive": true,
            "production": false,
            "visible": true,
            "skillType": "Special",
            "type": "SkillGroupLevelingBoost"
          }
        ],
        "slots": 0,
        "constructionTime": 345600,
        "description": ""
      }
    }
  },
  {
    "_id": "5df8a81f8f77747fcf5f5702",
    "type": 21,
    "enabled": true,
    "needsFuel": true,
    "takeFromSlotLocked": false,
    "craftGivesExp": true,
    "stages": {
      "0": {
        "requirements": [],
        "bonuses": [],
        "slots": 0,
        "constructionTime": 0,
        "description": ""
      },
      "1": {
        "requirements": [
          {
            "areaType": 4,
            "requiredLevel": 1,
            "type": "Area"
          },
          {
            "templateId": "5449016a4bdc2d6f028b456f",
            "count": 10000,
            "isFunctional": false,
            "type": "Item"
          },
          {
            "templateId": "5df8a77486f77412672a1e3f",
            "count": 1,
            "isFunctional": false,
            "type": "Item"
          },
          {
            "templateId": "5df8a72c86f77412640e2e83",
            "count": 1,
            "isFunctional": false,
            "type": "Item"
          },
          {
            "templateId": "5df8a6a186f77412640e2e80",
            "count": 1,
            "isFunctional": false,
            "type": "Item"
          }
        ],
        "bonuses": [],
        "slots": 0,
        "constructionTime": 0,
        "description": ""
      }
    }
  },
  {
    "_id": "5d484fda654e7600681d9315",
    "type": 10,
    "enabled": true,
    "needsFuel": true,
    "takeFromSlotLocked": false,
    "craftGivesExp": true,
    "stages": {
      "0": {
        "requirements": [],
        "bonuses": [],
        "slots": 0,
        "constructionTime": 0,
        "description": ""
      },
      "1": {
        "requirements": [
          {
            "templateId": "57347c77245977448d35f6e2",
            "count": 2,
            "isFunctional": false,
            "type": "Item"
          },
          {
            "templateId": "57347c5b245977448d35f6e1",
            "count": 2,
            "isFunctional": false,
            "type": "Item"
          },
          {
            "templateId": "544fb5454bdc2df8738b456a",
            "count": 1,
            "isFunctional": false,
            "type": "Item"
          }
        ],
        "bonuses": [
          {
            "value": 1,
            "passive": true,
            "production": false,
            "visible": false,
            "type": "UnlockWeaponModification"
          },
          {
            "value": 0,
            "passive": true,
            "production": false,
            "visible": true,
            "id": "5d78c1461d79cb822a38b5f7",
            "icon": "/files/Hideout/icon_hideout_unlocked.png",
            "type": "TextBonus"
          }
        ],
        "slots": 0,
        "constructionTime": 0,
        "description": ""
      },
      "2": {
        "requirements": [
          {
            "areaType": 15,
            "requiredLevel": 2,
            "type": "Area"
          },
          {
            "templateId": "590c2e1186f77425357b6124",
            "count": 3,
            "isFunctional": false,
            "type": "Item"
          },
          {
            "templateId": "59e35de086f7741778269d84",
            "count": 2,
            "isFunctional": false,
            "type": "Item"
          },
          {
            "templateId": "57347c5b245977448d35f6e1",
            "count": 6,
            "isFunctional": false,
            "type": "Item"
          },
          {
            "traderId": "5a7c2eca46aef81a7ca2145d",
            "loyaltyLevel": 2,
            "type": "TraderLoyalty"
          },
          {
            "areaType": 10,
            "requiredLevel": 1,
            "type": "Area"
          },
          {
            "templateId": "5d1c819a86f774771b0acd6c",
            "count": 3,
            "isFunctional": false,
            "type": "Item"
          }
        ],
        "bonuses": [],
        "slots": 0,
        "constructionTime": 10800,
        "description": ""
      },
      "3": {
        "requirements": [
          {
            "areaType": 4,
            "requiredLevel": 2,
            "type": "Area"
          },
          {
            "areaType": 3,
            "requiredLevel": 2,
            "type": "Area"
          },
          {
            "templateId": "5449016a4bdc2d6f028b456f",
            "count": 395000,
            "isFunctional": false,
            "type": "Item"
          },
          {
            "traderId": "5a7c2eca46aef81a7ca2145d",
            "loyaltyLevel": 3,
            "type": "TraderLoyalty"
          },
          {
            "areaType": 10,
            "requiredLevel": 2,
            "type": "Area"
          },
          {
            "templateId": "5af04b6486f774195a3ebb49",
            "count": 2,
            "isFunctional": false,
            "type": "Item"
          },
          {
            "templateId": "5bc9b355d4351e6d1509862a",
            "count": 1,
            "isFunctional": false,
            "type": "Item"
          },
          {
            "templateId": "60391a8b3364dc22b04d0ce5",
            "count": 2,
            "isFunctional": false,
            "type": "Item"
          }
        ],
        "bonuses": [],
        "slots": 0,
        "constructionTime": 39600,
        "description": ""
      }
    }
  },
  {
    "_id": "5d494a175b56502f18c98a04",
    "type": 14,
    "enabled": true,
    "needsFuel": false,
    "takeFromSlotLocked": false,
    "craftGivesExp": false,
    "stages": {
      "0": {
        "requirements": [],
        "bonuses": [],
        "slots": 0,
        "constructionTime": 0,
        "description": ""
      },
      "1": {
        "requirements": [
          {
            "areaType": 11,
            "requiredLevel": 2,
            "type": "Area"
          },
          {
            "templateId": "59e3639286f7741777737013",
            "count": 4,
            "isFunctional": false,
            "type": "Item"
          },
          {
            "templateId": "5d235a5986f77443f6329bc6",
            "count": 6,
            "isFunctional": false,
            "type": "Item"
          },
          {
            "templateId": "5734758f24597738025ee253",
            "count": 8,
            "isFunctional": false,
            "type": "Item"
          },
          {
            "templateId": "59faf7ca86f7740dbe19f6c2",
            "count": 4,
            "isFunctional": false,
            "type": "Item"
          },
          {
            "templateId": "5d1b376e86f774252519444e",
            "count": 3,
            "isFunctional": false,
            "type": "Item"
          },
          {
            "templateId": "5b7c710788a4506dec015957",
            "count": 1,
            "isFunctional": false,
            "type": "Item"
          }
        ],
        "bonuses": [
          {
            "value": 0,
            "passive": true,
            "production": false,
            "visible": true,
            "id": "5d6282d64e7f7ccdcb940567",
            "icon": "/files/Hideout/icon_hideout_scavitem.png",
            "type": "TextBonus"
          }
        ],
        "slots": 0,
        "constructionTime": 288000,
        "description": ""
      }
    }
  },
  {
    "_id": "5d3b396e33c48f02b81cd9f3",
    "type": 4,
    "enabled": true,
    "needsFuel": true,
    "takeFromSlotLocked": false,
    "craftGivesExp": false,
    "stages": {
      "0": {
        "requirements": [],
        "bonuses": [],
        "slots": 0,
        "constructionTime": 0,
        "description": ""
      },
      "1": {
        "requirements": [
          {
            "templateId": "5449016a4bdc2d6f028b456f",
            "count": 100000,
            "isFunctional": false,
            "type": "Item"
          },
          {
            "areaType": 1,
            "requiredLevel": 1,
            "type": "Area"
          },
          {
            "templateId": "590a3c0a86f774385a33c450",
            "count": 1,
            "isFunctional": false,
            "type": "Item"
          }
        ],
        "bonuses": [
          {
            "value": 2,
            "passive": true,
            "production": false,
            "visible": true,
            "filter": [
              "5d1b371186f774253763a656",
              "5d1b36a186f7742523398433"
            ],
            "icon": "/files/Hideout/icon_hideout_fuelslots.png",
            "type": "AdditionalSlots"
          }
        ],
        "slots": 0,
        "constructionTime": 0,
        "description": ""
      },
      "2": {
        "requirements": [
          {
            "areaType": 1,
            "requiredLevel": 2,
            "type": "Area"
          },
          {
            "areaType": 0,
            "requiredLevel": 2,
            "type": "Area"
          },
          {
            "templateId": "5d1b313086f77425227d1678",
            "count": 5,
            "isFunctional": false,
            "type": "Item"
          },
          {
            "templateId": "5d1b2fa286f77425227d1674",
            "count": 1,
            "isFunctional": false,
            "type": "Item"
          },
          {
            "templateId": "5c06779c86f77426e00dd782",
            "count": 15,
            "isFunctional": false,
            "type": "Item"
          },
          {
            "areaType": 4,
            "requiredLevel": 1,
            "type": "Area"
          },
          {
            "templateId": "619cbfeb6b8a1b37a54eebfa",
            "count": 1,
            "isFunctional": false,
            "type": "Item"
          }
        ],
        "bonuses": [
          {
            "value": 2,
            "passive": true,
            "production": false,
            "visible": true,
            "filter": [
              "5d1b371186f774253763a656",
              "5d1b36a186f7742523398433"
            ],
            "icon": "/files/Hideout/icon_hideout_fuelslots.png",
            "type": "AdditionalSlots"
          }
        ],
        "slots": 0,
        "constructionTime": 18000,
        "description": ""
      },
      "3": {
        "requirements": [
          {
            "areaType": 1,
            "requiredLevel": 3,
            "type": "Area"
          },
          {
            "areaType": 0,
            "requiredLevel": 3,
            "type": "Area"
          },
          {
            "templateId": "5d1b313086f77425227d1678",
            "count": 6,
            "isFunctional": false,
            "type": "Item"
          },
          {
            "templateId": "5d1b2fa286f77425227d1674",
            "count": 3,
            "isFunctional": false,
            "type": "Item"
          },
          {
            "templateId": "590a3c0a86f774385a33c450",
            "count": 10,
            "isFunctional": false,
            "type": "Item"
          },
          {
            "templateId": "57347c2e24597744902c94a1",
            "count": 5,
            "isFunctional": false,
            "type": "Item"
          },
          {
            "traderId": "5a7c2eca46aef81a7ca2145d",
            "loyaltyLevel": 3,
            "type": "TraderLoyalty"
          },
          {
            "areaType": 4,
            "requiredLevel": 2,
            "type": "Area"
          },
          {
            "templateId": "61bf7b6302b3924be92fa8c3",
            "count": 7,
            "isFunctional": false,
            "type": "Item"
          }
        ],
        "bonuses": [
          {
            "value": 2,
            "passive": true,
            "production": false,
            "visible": true,
            "filter": [
              "5d1b371186f774253763a656",
              "5d1b36a186f7742523398433"
            ],
            "icon": "/files/Hideout/icon_hideout_fuelslots.png",
            "type": "AdditionalSlots"
          }
        ],
        "slots": 0,
        "constructionTime": 57600,
        "description": ""
      }
    }
  },
  {
    "_id": "5d473c1e081959000e530190",
    "type": 0,
    "enabled": true,
    "needsFuel": true,
    "takeFromSlotLocked": false,
    "craftGivesExp": false,
    "stages": {
      "0": {
        "requirements": [],
        "bonuses": [],
        "slots": 0,
        "constructionTime": 0,
        "description": ""
      },
      "1": {
        "requirements": [
          {
            "templateId": "5449016a4bdc2d6f028b456f",
            "count": 25000,
            "isFunctional": false,
            "type": "Item"
          }
        ],
        "bonuses": [],
        "slots": 0,
        "constructionTime": 0,
        "description": ""
      },
      "2": {
        "requirements": [
          {
            "templateId": "5d1b2fa286f77425227d1674",
            "count": 1,
            "isFunctional": false,
            "type": "Item"
          },
          {
            "templateId": "5733279d245977289b77ec24",
            "count": 1,
            "isFunctional": false,
            "type": "Item"
          },
          {
            "areaType": 0,
            "requiredLevel": 1,
            "type": "Area"
          },
          {
            "templateId": "5734779624597737e04bf329",
            "count": 3,
            "isFunctional": false,
            "type": "Item"
          },
          {
            "templateId": "61bf7b6302b3924be92fa8c3",
            "count": 2,
            "isFunctional": false,
            "type": "Item"
          }
        ],
        "bonuses": [],
        "slots": 0,
        "constructionTime": 10800,
        "description": ""
      },
      "3": {
        "requirements": [
          {
            "areaType": 4,
            "requiredLevel": 2,
            "type": "Area"
          },
          {
            "templateId": "5d1b2fa286f77425227d1674",
            "count": 4,
            "isFunctional": false,
            "type": "Item"
          },
          {
            "templateId": "5c06779c86f77426e00dd782",
            "count": 14,
            "isFunctional": false,
            "type": "Item"
          },
          {
            "templateId": "590a3b0486f7743954552bdb",
            "count": 5,
            "isFunctional": false,
            "type": "Item"
          },
          {
            "templateId": "5733279d245977289b77ec24",
            "count": 4,
            "isFunctional": false,
            "type": "Item"
          },
          {
            "skillName": "Strength",
            "skillLevel": 2,
            "type": "Skill"
          },
          {
            "areaType": 0,
            "requiredLevel": 2,
            "type": "Area"
          },
          {
            "templateId": "61bf7b6302b3924be92fa8c3",
            "count": 5,
            "isFunctional": false,
            "type": "Item"
          }
        ],
        "bonuses": [],
        "slots": 0,
        "constructionTime": 36000,
        "description": ""
      }
    }
  },
  {
    "_id": "5d484fba654e7600691aadf7",
    "type": 2,
    "enabled": true,
    "needsFuel": false,
    "takeFromSlotLocked": false,
    "craftGivesExp": true,
    "stages": {
      "0": {
        "requirements": [],
        "bonuses": [],
        "slots": 0,
        "constructionTime": 0,
        "description": ""
      },
      "1": {
        "requirements": [
          {
            "templateId": "5449016a4bdc2d6f028b456f",
            "count": 2000,
            "isFunctional": false,
            "type": "Item"
          },
          {
            "templateId": "5c13cef886f774072e618e82",
            "count": 1,
            "isFunctional": false,
            "type": "Item"
          },
          {
            "templateId": "57347c93245977448d35f6e3",
            "count": 1,
            "isFunctional": false,
            "type": "Item"
          },
          {
            "templateId": "5c13cd2486f774072c757944",
            "count": 1,
            "isFunctional": false,
            "type": "Item"
          }
        ],
        "bonuses": [],
        "slots": 0,
        "constructionTime": 0,
        "description": ""
      },
      "2": {
        "requirements": [
          {
            "templateId": "59e35cbb86f7741778269d83",
            "count": 3,
            "isFunctional": false,
            "type": "Item"
          },
          {
            "templateId": "59e35ef086f7741777737012",
            "count": 5,
            "isFunctional": false,
            "type": "Item"
          },
          {
            "templateId": "59e35de086f7741778269d84",
            "count": 1,
            "isFunctional": false,
            "type": "Item"
          },
          {
            "areaType": 6,
            "requiredLevel": 1,
            "type": "Area"
          },
          {
            "areaType": 0,
            "requiredLevel": 1,
            "type": "Area"
          },
          {
            "areaType": 2,
            "requiredLevel": 1,
            "type": "Area"
          },
          {
            "templateId": "5e2af29386f7746d4159f077",
            "count": 1,
            "isFunctional": false,
            "type": "Item"
          },
          {
            "templateId": "61bf83814088ec1a363d7097",
            "count": 1,
            "isFunctional": false,
            "type": "Item"
          }
        ],
        "bonuses": [],
        "slots": 0,
        "constructionTime": 10800,
        "description": ""
      },
      "3": {
        "requirements": [
          {
            "templateId": "59e35cbb86f7741778269d83",
            "count": 6,
            "isFunctional": false,
            "type": "Item"
          },
          {
            "templateId": "5d1b327086f7742525194449",
            "count": 2,
            "isFunctional": false,
            "type": "Item"
          },
          {
            "templateId": "590c2e1186f77425357b6124",
            "count": 1,
            "isFunctional": false,
            "type": "Item"
          },
          {
            "areaType": 0,
            "requiredLevel": 2,
            "type": "Area"
          },
          {
            "areaType": 6,
            "requiredLevel": 2,
            "type": "Area"
          },
          {
            "templateId": "590c346786f77423e50ed342",
            "count": 3,
            "isFunctional": false,
            "type": "Item"
          },
          {
            "areaType": 2,
            "requiredLevel": 2,
            "type": "Area"
          }
        ],
        "bonuses": [],
        "slots": 0,
        "constructionTime": 25200,
        "description": ""
      }
    }
  },
  {
    "_id": "5d494a3f5b56502f18c98a0e",
    "type": 19,
    "enabled": true,
    "needsFuel": true,
    "takeFromSlotLocked": false,
    "craftGivesExp": true,
    "stages": {
      "0": {
        "requirements": [],
        "bonuses": [],
        "slots": 0,
        "constructionTime": 0,
        "description": ""
      },
      "1": {
        "requirements": [
          {
            "areaType": 6,
            "requiredLevel": 3,
            "type": "Area"
          },
          {
            "areaType": 8,
            "requiredLevel": 3,
            "type": "Area"
          },
          {
            "templateId": "5d1b39a386f774252339976f",
            "count": 4,
            "isFunctional": false,
            "type": "Item"
          },
          {
            "templateId": "5d1b32c186f774252167a530",
            "count": 2,
            "isFunctional": false,
            "type": "Item"
          },
          {
            "templateId": "5d1b327086f7742525194449",
            "count": 2,
            "isFunctional": false,
            "type": "Item"
          },
          {
            "templateId": "59e35cbb86f7741778269d83",
            "count": 5,
            "isFunctional": false,
            "type": "Item"
          },
          {
            "templateId": "619cbfccbedcde2f5b3f7bdd",
            "count": 1,
            "isFunctional": false,
            "type": "Item"
          },
          {
            "templateId": "5d1c774f86f7746d6620f8db",
            "count": 3,
            "isFunctional": false,
            "type": "Item"
          },
          {
            "templateId": "61bf7b6302b3924be92fa8c3",
            "count": 2,
            "isFunctional": false,
            "type": "Item"
          }
        ],
        "bonuses": [
          {
            "value": 0,
            "passive": true,
            "production": false,
            "visible": true,
            "id": "5d8b82b854358e8b7383cf4f",
            "icon": "/files/Hideout/icon_hideout_createitem_generic.png",
            "type": "TextBonus"
          }
        ],
        "slots": 0,
        "constructionTime": 172800,
        "description": ""
      }
    }
  },
  {
    "_id": "5d484fc8654e760065037abf",
    "type": 6,
    "enabled": true,
    "needsFuel": true,
    "takeFromSlotLocked": false,
    "craftGivesExp": true,
    "stages": {
      "0": {
        "requirements": [],
        "bonuses": [],
        "slots": 0,
        "constructionTime": 0,
        "description": ""
      },
      "1": {
        "requirements": [
          {
            "templateId": "59e35cbb86f7741778269d83",
            "count": 4,
            "isFunctional": false,
            "type": "Item"
          },
          {
            "templateId": "57347c5b245977448d35f6e1",
            "count": 5,
            "isFunctional": false,
            "type": "Item"
          },
          {
            "templateId": "57347c77245977448d35f6e2",
            "count": 5,
            "isFunctional": false,
            "type": "Item"
          },
          {
            "areaType": 1,
            "requiredLevel": 1,
            "type": "Area"
          },
          {
            "templateId": "57347c1124597737fb1379e3",
            "count": 3,
            "isFunctional": false,
            "type": "Item"
          }
        ],
        "bonuses": [
          {
            "value": 10,
            "passive": true,
            "production": false,
            "visible": true,
            "type": "HydrationRegeneration"
          }
        ],
        "slots": 0,
        "constructionTime": 7200,
        "description": ""
      },
      "2": {
        "requirements": [
          {
            "templateId": "59e35cbb86f7741778269d83",
            "count": 6,
            "isFunctional": false,
            "type": "Item"
          },
          {
            "templateId": "5d1b2fa286f77425227d1674",
            "count": 2,
            "isFunctional": false,
            "type": "Item"
          },
          {
            "templateId": "590c2e1186f77425357b6124",
            "count": 2,
            "isFunctional": false,
            "type": "Item"
          },
          {
            "skillName": "Attention",
            "skillLevel": 3,
            "type": "Skill"
          },
          {
            "areaType": 10,
            "requiredLevel": 2,
            "type": "Area"
          },
          {
            "areaType": 6,
            "requiredLevel": 1,
            "type": "Area"
          },
          {
            "traderId": "5c0647fdd443bc2504c2d371",
            "loyaltyLevel": 2,
            "type": "TraderLoyalty"
          },
          {
            "templateId": "5e2af29386f7746d4159f077",
            "count": 2,
            "isFunctional": false,
            "type": "Item"
          }
        ],
        "bonuses": [
          {
            "value": 20,
            "passive": true,
            "production": false,
            "visible": true,
            "type": "HydrationRegeneration"
          }
        ],
        "slots": 0,
        "constructionTime": 28800,
        "description": ""
      },
      "3": {
        "requirements": [
          {
            "templateId": "5449016a4bdc2d6f028b456f",
            "count": 20000,
            "isFunctional": false,
            "type": "Item"
          },
          {
            "traderId": "5c0647fdd443bc2504c2d371",
            "loyaltyLevel": 3,
            "type": "TraderLoyalty"
          },
          {
            "areaType": 4,
            "requiredLevel": 3,
            "type": "Area"
          },
          {
            "templateId": "5af04b6486f774195a3ebb49",
            "count": 2,
            "isFunctional": false,
            "type": "Item"
          },
          {
            "templateId": "590c35a486f774273531c822",
            "count": 5,
            "isFunctional": false,
            "type": "Item"
          },
          {
            "areaType": 6,
            "requiredLevel": 2,
            "type": "Area"
          },
          {
            "areaType": 5,
            "requiredLevel": 3,
            "type": "Area"
          },
          {
            "templateId": "60391afc25aff57af81f7085",
            "count": 1,
            "isFunctional": false,
            "type": "Item"
          }
        ],
        "bonuses": [
          {
            "value": 30,
            "passive": true,
            "production": false,
            "visible": true,
            "type": "HydrationRegeneration"
          },
          {
            "value": 1,
            "passive": true,
            "production": false,
            "visible": false,
            "filter": [
              "5d1b385e86f774252167b98a"
            ],
            "icon": null,
            "type": "AdditionalSlots"
          },
          {
            "value": 0,
            "passive": true,
            "production": false,
            "visible": true,
            "id": "5d836517a57db3778f31fde7",
            "icon": "/files/Hideout/icon_hideout_createitem_generic.png",
            "type": "TextBonus"
          }
        ],
        "slots": 0,
        "constructionTime": 57600,
        "description": ""
      }
    }
  },
  {
    "_id": "5d494a205b56502f18c98a06",
    "type": 15,
    "enabled": true,
    "needsFuel": true,
    "takeFromSlotLocked": false,
    "craftGivesExp": false,
    "stages": {
      "0": {
        "requirements": [],
        "bonuses": [],
        "slots": 0,
        "constructionTime": 0,
        "description": ""
      },
      "1": {
        "requirements": [
          {
            "templateId": "5449016a4bdc2d6f028b456f",
            "count": 10000,
            "isFunctional": false,
            "type": "Item"
          },
          {
            "templateId": "56742c284bdc2d98058b456d",
            "count": 1,
            "isFunctional": false,
            "type": "Item"
          }
        ],
        "bonuses": [],
        "slots": 0,
        "constructionTime": 0,
        "description": ""
      },
      "2": {
        "requirements": [
          {
            "templateId": "5d1b392c86f77425243e98fe",
            "count": 14,
            "isFunctional": false,
            "type": "Item"
          },
          {
            "templateId": "5c06779c86f77426e00dd782",
            "count": 5,
            "isFunctional": false,
            "type": "Item"
          },
          {
            "areaType": 4,
            "requiredLevel": 1,
            "type": "Area"
          },
          {
            "areaType": 15,
            "requiredLevel": 1,
            "type": "Area"
          }
        ],
        "bonuses": [],
        "slots": 0,
        "constructionTime": 0,
        "description": ""
      },
      "3": {
        "requirements": [
          {
            "areaType": 4,
            "requiredLevel": 2,
            "type": "Area"
          },
          {
            "areaType": 10,
            "requiredLevel": 1,
            "type": "Area"
          },
          {
            "areaType": 15,
            "requiredLevel": 2,
            "type": "Area"
          },
          {
            "traderId": "5a7c2eca46aef81a7ca2145d",
            "loyaltyLevel": 2,
            "type": "TraderLoyalty"
          },
          {
            "templateId": "5449016a4bdc2d6f028b456f",
            "count": 50000,
            "isFunctional": false,
            "type": "Item"
          },
          {
            "templateId": "5c06782b86f77426df5407d2",
            "count": 7,
            "isFunctional": false,
            "type": "Item"
          },
          {
            "templateId": "5c06779c86f77426e00dd782",
            "count": 6,
            "isFunctional": false,
            "type": "Item"
          },
          {
            "templateId": "590a3cd386f77436f20848cb",
            "count": 12,
            "isFunctional": false,
            "type": "Item"
          }
        ],
        "bonuses": [],
        "slots": 0,
        "constructionTime": 21600,
        "description": ""
      }
    }
  },
  {
    "_id": "5d484fd6654e76051d3cc791",
    "type": 9,
    "enabled": true,
    "needsFuel": true,
    "takeFromSlotLocked": false,
    "craftGivesExp": true,
    "stages": {
      "0": {
        "requirements": [],
        "bonuses": [],
        "slots": 0,
        "constructionTime": 0,
        "description": ""
      },
      "1": {
        "requirements": [
          {
            "areaType": 0,
            "requiredLevel": 1,
            "type": "Area"
          },
          {
            "templateId": "5449016a4bdc2d6f028b456f",
            "count": 10000,
            "isFunctional": false,
            "type": "Item"
          },
          {
            "templateId": "57347c1124597737fb1379e3",
            "count": 1,
            "isFunctional": false,
            "type": "Item"
          },
          {
            "templateId": "57347b8b24597737dd42e192",
            "count": 1,
            "isFunctional": false,
            "type": "Item"
          }
        ],
        "bonuses": [
          {
            "value": -10,
            "passive": true,
            "production": false,
            "visible": true,
            "type": "DebuffEndDelay"
          }
        ],
        "slots": 0,
        "constructionTime": 0,
        "description": ""
      },
      "2": {
        "requirements": [
          {
            "areaType": 4,
            "requiredLevel": 2,
            "type": "Area"
          },
          {
            "areaType": 5,
            "requiredLevel": 2,
            "type": "Area"
          },
          {
            "templateId": "5449016a4bdc2d6f028b456f",
            "count": 35000,
            "isFunctional": false,
            "type": "Item"
          },
          {
            "traderId": "5ac3b934156ae10c4430e83c",
            "loyaltyLevel": 2,
            "type": "TraderLoyalty"
          },
          {
            "areaType": 9,
            "requiredLevel": 1,
            "type": "Area"
          },
          {
            "templateId": "5734781f24597737e04bf32a",
            "count": 1,
            "isFunctional": false,
            "type": "Item"
          },
          {
            "templateId": "590a391c86f774385a33c404",
            "count": 1,
            "isFunctional": false,
            "type": "Item"
          },
          {
            "templateId": "590a3cd386f77436f20848cb",
            "count": 3,
            "isFunctional": false,
            "type": "Item"
          }
        ],
        "bonuses": [
          {
            "value": 5,
            "passive": true,
            "production": false,
            "visible": true,
            "type": "EnergyRegeneration"
          },
          {
            "value": 5,
            "passive": true,
            "production": false,
            "visible": true,
            "type": "HealthRegeneration"
          }
        ],
        "slots": 0,
        "constructionTime": 7200,
        "description": ""
      },
      "3": {
        "requirements": [
          {
            "areaType": 4,
            "requiredLevel": 3,
            "type": "Area"
          },
          {
            "areaType": 5,
            "requiredLevel": 3,
            "type": "Area"
          },
          {
            "templateId": "59e36c6f86f774176c10a2a7",
            "count": 4,
            "isFunctional": false,
            "type": "Item"
          },
          {
            "templateId": "5c06782b86f77426df5407d2",
            "count": 5,
            "isFunctional": false,
            "type": "Item"
          },
          {
            "templateId": "5c06779c86f77426e00dd782",
            "count": 7,
            "isFunctional": false,
            "type": "Item"
          },
          {
            "templateId": "5e2aedd986f7746d404f3aa4",
            "count": 5,
            "isFunctional": false,
            "type": "Item"
          },
          {
            "traderId": "58330581ace78e27b8b10cee",
            "loyaltyLevel": 3,
            "type": "TraderLoyalty"
          },
          {
            "areaType": 9,
            "requiredLevel": 2,
            "type": "Area"
          }
        ],
        "bonuses": [
          {
            "value": 10,
            "passive": true,
            "production": false,
            "visible": true,
            "type": "HealthRegeneration"
          },
          {
            "value": 10,
            "passive": true,
            "production": false,
            "visible": true,
            "type": "MaximumEnergyReserve"
          }
        ],
        "slots": 0,
        "constructionTime": 36000,
        "description": ""
      }
    }
  }
]